…
# results table #

sim_results = tibble(beta_1 = c(0,1,2,3,4,5,6)) %>%
  mutate(output_lists = map(.x = beta_1, ~rerun(10000, sim_regression(n = 30, beta1 = .x))), estimate_df = map(output_lists, bind_rows)) %>%
  select(-output_lists) %>%
  unnest(estimate_df)

print(sim_results)
```

    ## # A tibble: 70,000 x 3
    ##    beta_1 beta1_hat p_value
    ##     <dbl>     <dbl>   <dbl>
    ##  1      0    -2.62   0.764 
    ##  2      0     5.96   0.287 
    ##  3      0    11.5    0.183 
    ##  4      0    -0.953  0.933 
    ##  5      0     7.01   0.405 
    ##  6      0     6.17   0.478 
    ##  7      0    18.2    0.0492
    ##  8      0    -8.23   0.535 
    ##  9      0    -1.88   0.832 
    ## 10      0     9.63   0.323 
    ## # … with 69,990 more rows
…
